RMDL – Research Methods in Developmental Linguistics – Week 6
…
Song 2020: the data

shallow <- read_csv("data/song2020/shallow.csv") |>
  filter(
    Critical_Filler == "Critical",
    Branching == "Left"
  ) |> 
  mutate(
    accuracy = ifelse(ACC == 0, "incorrect", "correct"),
    accuracy = factor(accuracy, levels = c("incorrect", "correct"))
  )
shallow

# A tibble: 1,170 × 12
   Group ID    List  Target         ACC    RT logRT Critical_Filler Word_Nonword
   <chr> <chr> <chr> <chr>        <dbl> <dbl> <dbl> <chr>           <chr>       
 1 L1    L1_01 A     unawareness      1   603  6.40 Critical        Word        
 2 L1    L1_01 A     unholiness       1   739  6.61 Critical        Word        
 3 L1    L1_01 A     unhappiness      1   370  5.91 Critical        Word        
 4 L1    L1_01 A     unsharpness      1   821  6.71 Critical        Word        
 5 L1    L1_01 A     unripeness       0  1035  6.94 Critical        Word        
 6 L1    L1_01 A     unkindness       1   498  6.21 Critical        Word        
 7 L1    L1_01 A     unwariness       1  1133  7.03 Critical        Word        
 8 L1    L1_01 A     unclearness      1   513  6.24 Critical        Word        
 9 L1    L1_01 A     reobtainable     0   964  6.87 Critical        Word        
10 L1    L1_01 A     resealable       1   709  6.56 Critical        Word        
# ℹ 1,160 more rows
# ℹ 3 more variables: Relation_type <chr>, Branching <chr>, accuracy <fct>
…
Expected predictions by subject: get draws of constant terms

sha_bm_2_draws <- as_draws_df(sha_bm_2, variable = c("^b_.*"), regex = TRUE) |> 
  pivot_longer(
    `b_GroupL1:Relation_typeConstituent`:`b_GroupL2:Relation_typeUnrelated`,
    names_to = c("Group", "Relation_type"),
    names_pattern = "b_Group(.*):(.*)"
  )

sha_bm_2_draws

# A tibble: 24,000 × 6
   .chain .iteration .draw Group Relation_type               value
    <int>      <int> <int> <chr> <chr>                       <dbl>
 1      1          1     1 L1    Relation_typeConstituent    2.54 
 2      1          1     1 L2    Relation_typeConstituent    2.14 
 3      1          1     1 L1    Relation_typeNonConstituent 1.63 
 4      1          1     1 L2    Relation_typeNonConstituent 1.47 
 5      1          1     1 L1    Relation_typeUnrelated      1.49 
 6      1          1     1 L2    Relation_typeUnrelated      0.641
 7      1          2     2 L1    Relation_typeConstituent    2.68 
 8      1          2     2 L2    Relation_typeConstituent    2.21 
 9      1          2     2 L1    Relation_typeNonConstituent 1.59 
10      1          2     2 L2    Relation_typeNonConstituent 2.01 
# ℹ 23,990 more rows

Expected predictions by subject: get draws of varying terms

sha_bm_2_r <- spread_draws(sha_bm_2, r_ID[ID,Relation_type]) |> 
  mutate(
    Group = str_sub(ID, 1, 2)
  )

sha_bm_2_r

# A tibble: 780,000 × 7
# Groups:   ID, Relation_type [195]
   ID    Relation_type              r_ID .chain .iteration .draw Group
   <chr> <chr>                     <dbl>  <int>      <int> <int> <chr>
 1 L1_01 Relation_typeConstituent  0.994      1          1     1 L1   
 2 L1_01 Relation_typeConstituent  1.31       1          2     2 L1   
 3 L1_01 Relation_typeConstituent  0.167      1          3     3 L1   
 4 L1_01 Relation_typeConstituent  1.02       1          4     4 L1   
 5 L1_01 Relation_typeConstituent  0.463      1          5     5 L1   
 6 L1_01 Relation_typeConstituent -0.756      1          6     6 L1   
 7 L1_01 Relation_typeConstituent  1.47       1          7     7 L1   
 8 L1_01 Relation_typeConstituent  0.149      1          8     8 L1   
 9 L1_01 Relation_typeConstituent -0.919      1          9     9 L1   
10 L1_01 Relation_typeConstituent  1.66       1         10    10 L1   
# ℹ 779,990 more rows

Expected predictions by subject: join

sha_bm_2_draws_r <- left_join(sha_bm_2_draws, sha_bm_2_r) |> 
  mutate(
    epred = value + r_ID
  )

sha_bm_2_draws_r

# A tibble: 780,000 × 9
   .chain .iteration .draw Group Relation_type         value ID       r_ID epred
    <int>      <int> <int> <chr> <chr>                 <dbl> <chr>   <dbl> <dbl>
 1      1          1     1 L1    Relation_typeConstit…  2.54 L1_01  0.994   3.53
 2      1          1     1 L1    Relation_typeConstit…  2.54 L1_02 -0.965   1.57
 3      1          1     1 L1    Relation_typeConstit…  2.54 L1_03  2.62    5.16
 4      1          1     1 L1    Relation_typeConstit…  2.54 L1_05 -0.0306  2.51
 5      1          1     1 L1    Relation_typeConstit…  2.54 L1_06 -1.33    1.21
 6      1          1     1 L1    Relation_typeConstit…  2.54 L1_07  1.30    3.84
 7      1          1     1 L1    Relation_typeConstit…  2.54 L1_08  0.0710  2.61
 8      1          1     1 L1    Relation_typeConstit…  2.54 L1_09  1.73    4.27
 9      1          1     1 L1    Relation_typeConstit…  2.54 L1_10 -0.0995  2.44
10      1          1     1 L1    Relation_typeConstit…  2.54 L1_11 -0.416   2.12
# ℹ 779,990 more rows
…
Difference between expected predictions by-subject

sha_bm_2_draws_r_wide <- sha_bm_2_draws_r |>
  select(-value, -r_ID) |> 
  pivot_wider(names_from = Relation_type, values_from = epred) |> 
  mutate(
    ncon_con = Relation_typeNonConstituent - Relation_typeConstituent
  )

sha_bm_2_draws_r_wide

# A tibble: 260,000 × 9
   .chain .iteration .draw Group ID    Relation_typeConstituent
    <int>      <int> <int> <chr> <chr>                    <dbl>
 1      1          1     1 L1    L1_01                     3.53
 2      1          1     1 L1    L1_02                     1.57
 3      1          1     1 L1    L1_03                     5.16
 4      1          1     1 L1    L1_05                     2.51
 5      1          1     1 L1    L1_06                     1.21
 6      1          1     1 L1    L1_07                     3.84
 7      1          1     1 L1    L1_08                     2.61
 8      1          1     1 L1    L1_09                     4.27
 9      1          1     1 L1    L1_10                     2.44
10      1          1     1 L1    L1_11                     2.12
# ℹ 259,990 more rows
# ℹ 3 more variables: Relation_typeNonConstituent <dbl>,
#   Relation_typeUnrelated <dbl>, ncon_con <dbl>
…
