RMDL - Research Methods in Developmental Linguistics
…
            University of Edinburgh

Ota 2009

From The KEY to the ROCK: Near-homophony in nonnative visual word recognition (10.1016/j.cognition.2008.12.007)

Visual semantic-relatedness paradigm.

LOCK/ROCK ~ KEY.

Japanese data.

Ota 2009

# A tibble: 2,338 × 11
   Subject Procedure Version Contrast  Item Condition WordL   WordR   Words.ACC
   <fct>   <chr>     <chr>   <chr>    <dbl> <chr>     <chr>   <chr>       <dbl>
 1 1       TrialProc B2      PB           1 Unrelated HIT     BUNCH           1
 2 1       TrialProc A2      LR           1 Unrelated FALSE   COLLECT         0
 3 1       TrialProc A2      H           19 Unrelated HELLO   BUY             1
 4 1       TrialProc B2      PB          18 Control   BACK    FAT             1
 5 1       TrialProc B1      H            8 Unrelated SALE    SHIP            1
 6 1       TrialProc B1      H           20 Control   HIRE    LISTEN          1
 7 1       TrialProc B2      LR           3 Unrelated ORDER   RAW             1
 8 1       TrialProc A2      PB          13 Control   PART    WIT             1
 9 1       TrialProc A2      LR          13 Control   BEAM    DAY             1
10 1       TrialProc B2      H           13 Control   SERVANT MAZE            1
# ℹ 2,328 more rows
# ℹ 2 more variables: Words.RT <dbl>, RT_log <dbl>
…
Family Specific Parameters: 
      Estimate Est.Error l-90% CI u-90% CI Rhat Bulk_ESS Tail_ESS
sigma     0.54      0.01     0.52     0.55 1.00     3538     2687

Draws were sampled using sample(hmc). For each parameter, Bulk_ESS
and Tail_ESS are effective sample size measures, and Rhat is the potential
scale reduction factor on split chains (at convergence, Rhat = 1).

Ota 2009

ota_bm_1_gdraws <- ota_bm_1 %>%
  gather_draws(`b_.*`, regex = TRUE)
ota_bm_1_gdraws

# A tibble: 24,000 × 5
# Groups:   .variable [6]
   .chain .iteration .draw .variable   .value
    <int>      <int> <int> <chr>        <dbl>
 1      1          1     1 b_Intercept   7.63
 2      1          2     2 b_Intercept   7.67
 3      1          3     3 b_Intercept   7.65
 4      1          4     4 b_Intercept   7.63
 5      1          5     5 b_Intercept   7.62
 6      1          6     6 b_Intercept   7.63
 7      1          7     7 b_Intercept   7.61
 8      1          8     8 b_Intercept   7.63
 9      1          9     9 b_Intercept   7.61
10      1         10    10 b_Intercept   7.65
# ℹ 23,990 more rows
…
Ota 2009

# A tibble: 4,000 × 10
   .chain .iteration .draw b_Intercept b_ConditionUnrelated b_ContrastLR
    <int>      <int> <int>       <dbl>                <dbl>        <dbl>
 1      1          1     1        7.63               0.0946      0.0926 
 2      1          2     2        7.67               0.0718      0.0165 
 3      1          3     3        7.65               0.0671      0.0420 
 4      1          4     4        7.63               0.0931      0.107  
 5      1          5     5        7.62               0.0938      0.0597 
 6      1          6     6        7.63               0.0868      0.0467 
 7      1          7     7        7.61               0.113       0.0611 
 8      1          8     8        7.63               0.101       0.103  
 9      1          9     9        7.61               0.124       0.115  
10      1         10    10        7.65               0.0903      0.00946
# ℹ 3,990 more rows
# ℹ 4 more variables: b_ContrastPB <dbl>,
#   `b_ConditionUnrelated:ContrastLR` <dbl>,
#   `b_ConditionUnrelated:ContrastPB` <dbl>, LR_cond_dif <dbl>
…
Draws were sampled using sample(hmc). For each parameter, Bulk_ESS
and Tail_ESS are effective sample size measures, and Rhat is the potential
scale reduction factor on split chains (at convergence, Rhat = 1).

Ota 2009: subject-level intercepts

ota_bm_2_sdraws <- ota_bm_2 %>%
  spread_draws(`b_.*`, regex = TRUE) %>%
  mutate(
    LR_cond_dif = b_ConditionUnrelated + `b_ConditionUnrelated:ContrastLR`
  )
ota_bm_2_sdraws

# A tibble: 4,000 × 10
   .chain .iteration .draw b_Intercept b_ConditionUnrelated b_ContrastLR
    <int>      <int> <int>       <dbl>                <dbl>        <dbl>
 1      1          1     1        7.66               0.0971       0.0785
 2      1          2     2        7.58               0.101        0.0968
 3      1          3     3        7.57               0.152        0.0925
 4      1          4     4        7.63               0.0432       0.0506
 5      1          5     5        7.51               0.129        0.0596
 6      1          6     6        7.51               0.126        0.0570
 7      1          7     7        7.54               0.0761       0.0712
 8      1          8     8        7.52               0.104        0.0627
 9      1          9     9        7.63               0.0985       0.0675
10      1         10    10        7.64               0.0951       0.108 
# ℹ 3,990 more rows
# ℹ 4 more variables: b_ContrastPB <dbl>,
#   `b_ConditionUnrelated:ContrastLR` <dbl>,
#   `b_ConditionUnrelated:ContrastPB` <dbl>, LR_cond_dif <dbl>
…
Ota 2009: subject-level intercepts

ota_bm_2_int <- ota_bm_2 %>%
  gather_draws(r_Subject[Subject,term])
ota_bm_2_int

# A tibble: 80,000 × 7
# Groups:   Subject, term, .variable [20]
   Subject term      .chain .iteration .draw .variable .value
     <int> <chr>      <int>      <int> <int> <chr>      <dbl>
 1       1 Intercept      1          1     1 r_Subject 0.0516
 2       1 Intercept      1          2     2 r_Subject 0.124 
 3       1 Intercept      1          3     3 r_Subject 0.163 
 4       1 Intercept      1          4     4 r_Subject 0.144 
 5       1 Intercept      1          5     5 r_Subject 0.217 
 6       1 Intercept      1          6     6 r_Subject 0.232 
 7       1 Intercept      1          7     7 r_Subject 0.176 
 8       1 Intercept      1          8     8 r_Subject 0.238 
 9       1 Intercept      1          9     9 r_Subject 0.0935
10       1 Intercept      1         10    10 r_Subject 0.128 
# ℹ 79,990 more rows
…
English L1 and L2 participants (L2 participants are native speakers of Cantonese).

Lexical decision task: Is the word a real English word or not?

Each trial:

Prime: prolong (unrelated), unkind (constituent), kindness (non-constituent).

Target: unkindness ([un-kind]-ness, not un-[kind-ness]).

Data gathered: Reaction times and accuracy.

Song 2020

# A tibble: 1,950 × 11
   Group ID    List  Target        ACC    RT logRT Critical_Filler Word_Nonword
   <chr> <chr> <chr> <chr>       <dbl> <dbl> <dbl> <chr>           <chr>       
 1 L1    L1_01 A     unawareness     1   603  6.40 Critical        Word        
 2 L1    L1_01 A     unholiness      1   739  6.61 Critical        Word        
 3 L1    L1_01 A     unhappiness     1   370  5.91 Critical        Word        
 4 L1    L1_01 A     unsharpness     1   821  6.71 Critical        Word        
 5 L1    L1_01 A     unripeness      0  1035  6.94 Critical        Word        
 6 L1    L1_01 A     undeniable      1   833  6.72 Critical        Word        
 7 L1    L1_01 A     unskillful      1   740  6.61 Critical        Word        
 8 L1    L1_01 A     unkindness      1   498  6.21 Critical        Word        
 9 L1    L1_01 A     unwariness      1  1133  7.03 Critical        Word        
10 L1    L1_01 A     unclearness     1   513  6.24 Critical        Word        
# ℹ 1,940 more rows
# ℹ 2 more variables: Relation_type <chr>, Branching <chr>
…
