Research Methods in Developmental Linguistics
…
---

```r
ota2009 <- read_csv("data/ota2009.csv") %>%
  filter(
    Procedure == "TrialProc", Contrast != "F"
  ) %>%
  mutate(
    Subject = as.factor(Subject), RT_log = log(Words.RT)
  )
ota2009
```

```
## # A tibble: 2,338 × 11
##    Subject Procedure Version Contrast  Item Condition WordL   WordR   Words.ACC Words.RT RT_log
##    <fct>   <chr>     <chr>   <chr>    <dbl> <chr>     <chr>   <chr>       <dbl>    <dbl>  <dbl>
##  1 1       TrialProc B2      PB           1 Unrelated HIT     BUNCH           1     1979   7.59
##  2 1       TrialProc A2      LR           1 Unrelated FALSE   COLLECT         0     1978   7.59
##  3 1       TrialProc A2      H           19 Unrelated HELLO   BUY             1     2820   7.94
##  4 1       TrialProc B2      PB          18 Control   BACK    FAT             1     2456   7.81
##  5 1       TrialProc B1      H            8 Unrelated SALE    SHIP            1     1895   7.55
##  6 1       TrialProc B1      H           20 Control   HIRE    LISTEN          1     3638   8.20
##  7 1       TrialProc B2      LR           3 Unrelated ORDER   RAW             1     2347   7.76
##  8 1       TrialProc A2      PB          13 Control   PART    WIT             1     2433   7.80
##  9 1       TrialProc A2      LR          13 Control   BEAM    DAY             1     3366   8.12
## 10 1       TrialProc B2      H           13 Control   SERVANT MAZE            1     2213   7.70
## # ℹ 2,328 more rows
```
…
<img src="index_files/figure-html/fig-ota-bm-1-gdraws-1.png" width="60%" style="display: block; margin: auto;" />

---

```r
ota_bm_1_sdraws <- ota_bm_1 %>%
  spread_draws(`b_.*`, regex = TRUE) %>%
  mutate(
    LR_cond_dif = b_ConditionUnrelated + `b_ConditionUnrelated:ContrastLR`
  )
ota_bm_1_sdraws
```

```
## # A tibble: 4,000 × 10
##    .chain .iteration .draw b_Intercept b_ConditionUnrelated b_ContrastLR b_ContrastPB b_ConditionUnrelated:ContrastL…¹ b_ConditionUnrelated…² LR_cond_dif
##     <int>      <int> <int>       <dbl>                <dbl>        <dbl>        <dbl>                            <dbl>                  <dbl>       <dbl>
##  1      1          1     1        7.63               0.0946      0.0926     -0.0272                           -0.0815                -0.0492       0.0131
##  2      1          2     2        7.67               0.0718      0.0165     -0.0466                           -0.00610               -0.00274      0.0657
##  3      1          3     3        7.65               0.0671      0.0420      0.0142                           -0.0454                -0.0792       0.0217
##  4      1          4     4        7.63               0.0931      0.107      -0.0405                           -0.0678                -0.0708       0.0253
##  5      1          5     5        7.62               0.0938      0.0597     -0.000432                          0.0156                -0.102        0.109 
##  6      1          6     6        7.63               0.0868      0.0467      0.00786                          -0.0613                -0.0580       0.0255
##  7      1          7     7        7.61               0.113       0.0611      0.00349                          -0.0414                -0.0772       0.0719
##  8      1          8     8        7.63               0.101       0.103       0.000400                         -0.124                 -0.0193      -0.0231
##  9      1          9     9        7.61               0.124       0.115      -0.0386                           -0.0875                -0.0436       0.0365
## 10      1         10    10        7.65               0.0903      0.00946    -0.00251                           0.0311                -0.0738       0.121 
## # ℹ 3,990 more rows
## # ℹ abbreviated names: ¹​`b_ConditionUnrelated:ContrastLR`, ²​`b_ConditionUnrelated:ContrastPB`
```
…
---

```r
ota_bm_2_sdraws <- ota_bm_2 %>%
  spread_draws(`b_.*`, regex = TRUE) %>%
  mutate(
    LR_cond_dif = b_ConditionUnrelated + `b_ConditionUnrelated:ContrastLR`
  )
ota_bm_2_sdraws
```

```
## # A tibble: 4,000 × 10
##    .chain .iteration .draw b_Intercept b_ConditionUnrelated b_ContrastLR b_ContrastPB b_ConditionUnrelated:ContrastL…¹ b_ConditionUnrelated…² LR_cond_dif
##     <int>      <int> <int>       <dbl>                <dbl>        <dbl>        <dbl>                            <dbl>                  <dbl>       <dbl>
##  1      1          1     1        7.66               0.0971       0.0785      -0.0137                          -0.0359                -0.0385      0.0612
##  2      1          2     2        7.58               0.101        0.0968       0.0627                          -0.0611                -0.136       0.0402
##  3      1          3     3        7.57               0.152        0.0925       0.0402                          -0.0937                -0.0859      0.0587
##  4      1          4     4        7.63               0.0432       0.0506      -0.0365                           0.0587                 0.0205      0.102 
##  5      1          5     5        7.51               0.129        0.0596       0.0172                          -0.0629                -0.0426      0.0662
##  6      1          6     6        7.51               0.126        0.0570       0.0126                          -0.0582                -0.0406      0.0682
##  7      1          7     7        7.54               0.0761       0.0712      -0.0100                          -0.0282                -0.0845      0.0479
##  8      1          8     8        7.52               0.104        0.0627       0.0157                          -0.0270                -0.0641      0.0765
##  9      1          9     9        7.63               0.0985       0.0675      -0.0237                          -0.0453                -0.0326      0.0532
## 10      1         10    10        7.64               0.0951       0.108       -0.0123                          -0.0849                -0.0333      0.0102
## # ℹ 3,990 more rows
## # ℹ abbreviated names: ¹​`b_ConditionUnrelated:ContrastLR`, ²​`b_ConditionUnrelated:ContrastPB`
```
…
<img src="index_files/figure-html/fig-ota-bm-2-1.png" width="60%" style="display: block; margin: auto;" />

---

```r
ota_bm_2_int <- ota_bm_2 %>%
  gather_draws(r_Subject[Subject,term])
ota_bm_2_int
```

```
## # A tibble: 80,000 × 7
## # Groups:   Subject, term, .variable [20]
##    Subject term      .chain .iteration .draw .variable .value
##      <int> <chr>      <int>      <int> <int> <chr>      <dbl>
##  1       1 Intercept      1          1     1 r_Subject 0.0516
##  2       1 Intercept      1          2     2 r_Subject 0.124 
##  3       1 Intercept      1          3     3 r_Subject 0.163 
##  4       1 Intercept      1          4     4 r_Subject 0.144 
##  5       1 Intercept      1          5     5 r_Subject 0.217 
##  6       1 Intercept      1          6     6 r_Subject 0.232 
##  7       1 Intercept      1          7     7 r_Subject 0.176 
##  8       1 Intercept      1          8     8 r_Subject 0.238 
##  9       1 Intercept      1          9     9 r_Subject 0.0935
## 10       1 Intercept      1         10    10 r_Subject 0.128 
## # ℹ 79,990 more rows
```
…
layout: false
layout: true

## Song 2020

---

```r
shallow <- read_csv("data/shallow.csv") %>%
  filter(Critical_Filler == "Critical")
shallow
```

```
## # A tibble: 1,950 × 11
##    Group ID    List  Target        ACC    RT logRT Critical_Filler Word_Nonword Relation_type  Branching
##    <chr> <chr> <chr> <chr>       <dbl> <dbl> <dbl> <chr>           <chr>        <chr>          <chr>    
##  1 L1    L1_01 A     unawareness     1   603  6.40 Critical        Word         Unrelated      Left     
##  2 L1    L1_01 A     unholiness      1   739  6.61 Critical        Word         Constituent    Left     
##  3 L1    L1_01 A     unhappiness     1   370  5.91 Critical        Word         Unrelated      Left     
##  4 L1    L1_01 A     unsharpness     1   821  6.71 Critical        Word         Constituent    Left     
##  5 L1    L1_01 A     unripeness      0  1035  6.94 Critical        Word         Unrelated      Left     
##  6 L1    L1_01 A     undeniable      1   833  6.72 Critical        Word         Unrelated      Right    
##  7 L1    L1_01 A     unskillful      1   740  6.61 Critical        Word         Constituent    Right    
##  8 L1    L1_01 A     unkindness      1   498  6.21 Critical        Word         NonConstituent Left     
##  9 L1    L1_01 A     unwariness      1  1133  7.03 Critical        Word         NonConstituent Left     
## 10 L1    L1_01 A     unclearness     1   513  6.24 Critical        Word         Constituent    Left     
## # ℹ 1,940 more rows
```
…
